<?xml version="1.0" encoding="UTF-8" standalone="no"?>
<!DOCTYPE svg PUBLIC "-//W3C//DTD SVG 1.1//EN" "http://www.w3.org/Graphics/SVG/1.1/DTD/svg11.dtd">
<svg width="100%" height="100%" viewBox="0 0 9 16" version="1.1" xmlns="http://www.w3.org/2000/svg" xmlns:xlink="http://www.w3.org/1999/xlink" xml:space="preserve" xmlns:serif="http://www.serif.com/" style="fill-rule:evenodd;clip-rule:evenodd;stroke-linejoin:round;stroke-miterlimit:1.5;">
    <g transform="matrix(1,0,0,1,-4138.15,-2987.72)">
        <g transform="matrix(0.890869,0,0,3.01286,3215.01,-398.166)">
            <g transform="matrix(-2.62347e-17,0.202289,2.59226,2.93935e-17,865.089,1031.85)">
                <g transform="matrix(1.1225,-2.76718e-32,0,0.288738,-2060.35,-5.07813)">
                    <path d="M2241.61,247.361L2252.11,257.859" style="fill:none;stroke:rgb(38,191,150);stroke-width:2.22px;"/>
                </g>
                <g transform="matrix(-1.1225,0,0,0.288738,2994.99,-5.07813)">
                    <path d="M2241.61,247.361L2252.11,257.859" style="fill:none;stroke:rgb(38,191,150);stroke-width:2.22px;"/>
                </g>
            </g>
        </g>
    </g>
</svg>
