<?xml version="1.0" encoding="UTF-8" standalone="no"?>
<!DOCTYPE svg PUBLIC "-//W3C//DTD SVG 1.1//EN" "http://www.w3.org/Graphics/SVG/1.1/DTD/svg11.dtd">
<svg width="100%" height="100%" viewBox="0 0 18 35" version="1.1" xmlns="http://www.w3.org/2000/svg" xmlns:xlink="http://www.w3.org/1999/xlink" xml:space="preserve" xmlns:serif="http://www.serif.com/" style="fill-rule:evenodd;clip-rule:evenodd;stroke-linejoin:round;stroke-miterlimit:1.5;">
    <g transform="matrix(1,0,0,1,-6493.39,-2898.54)">
        <g transform="matrix(0.890869,0,0,4.2091,5551.64,145.234)">
            <g id="Left" transform="matrix(-4.92707e-16,-0.340613,-6.09787,3.95142e-16,1480.99,817.392)">
                <g transform="matrix(1.1225,-2.76718e-32,0,0.288738,-2060.35,-5.07813)">
                    <path d="M2241.61,247.361L2252.11,257.859" style="fill:none;stroke:white;stroke-width:0.94px;"/>
                </g>
                <g transform="matrix(-1.1225,0,0,0.288738,2994.99,-5.07813)">
                    <path d="M2241.61,247.361L2252.11,257.859" style="fill:none;stroke:white;stroke-width:0.94px;"/>
                </g>
            </g>
        </g>
    </g>
</svg>
