<?xml version="1.0" encoding="UTF-8" standalone="no"?>
<!DOCTYPE svg PUBLIC "-//W3C//DTD SVG 1.1//EN" "http://www.w3.org/Graphics/SVG/1.1/DTD/svg11.dtd">
<svg width="100%" height="100%" viewBox="0 0 21 18" version="1.1" xmlns="http://www.w3.org/2000/svg" xmlns:xlink="http://www.w3.org/1999/xlink" xml:space="preserve" xmlns:serif="http://www.serif.com/" style="fill-rule:evenodd;clip-rule:evenodd;stroke-linejoin:round;stroke-miterlimit:1.41421;">
    <g transform="matrix(1,0,0,1,-5703,-633.338)">
        <g transform="matrix(0.890869,0,0,4.2091,5551.64,23.2338)">
            <g transform="matrix(0.351677,0,0,0.0744334,178.807,145.867)">
                <g>
                    <g id="Режим-изоляции" serif:id="Режим изоляции">
                        <path d="M0,29.701L0,33.252C0,34.356 -0.896,35.252 -2,35.252C-3.104,35.252 -4,34.356 -4,33.252L-4,29.701C-4,28.597 -3.104,27.701 -2,27.701C-0.896,27.701 0,28.597 0,29.701M-11.61,29.701L-11.61,33.252C-11.61,34.356 -12.505,35.252 -13.61,35.252C-14.715,35.252 -15.61,34.356 -15.61,33.252L-15.61,29.701C-15.61,28.597 -14.715,27.701 -13.61,27.701C-12.505,27.701 -11.61,28.597 -11.61,29.701M23.6,-4.149C26.582,-4.154 29.443,-2.97 31.55,-0.859C32.331,-0.077 32.331,1.19 31.55,1.972C30.769,2.753 29.501,2.753 28.72,1.972C25.893,-0.856 21.309,-0.857 18.481,1.971C18.48,1.971 18.48,1.971 18.479,1.972C18.103,2.346 17.592,2.555 17.06,2.552C16.537,2.544 16.038,2.332 15.67,1.961C14.889,1.181 14.888,-0.086 15.668,-0.867C15.669,-0.867 15.669,-0.868 15.67,-0.869C17.771,-2.975 20.625,-4.156 23.6,-4.149M9.11,-3.488C8.328,-4.269 8.328,-5.535 9.108,-6.317C9.108,-6.318 9.109,-6.318 9.11,-6.319C17.098,-14.327 30.064,-14.343 38.073,-6.356C38.085,-6.343 38.098,-6.331 38.11,-6.319C38.854,-5.502 38.793,-4.237 37.976,-3.493C37.215,-2.801 36.054,-2.799 35.29,-3.488C28.851,-9.928 18.409,-9.928 11.97,-3.488C11.189,-2.707 9.923,-2.706 9.142,-3.487C9.141,-3.487 9.141,-3.488 9.14,-3.488L9.11,-3.488ZM34.67,38.151C34.67,39.184 33.833,40.021 32.8,40.021L-19.45,40.021C-20.484,40.021 -21.325,39.185 -21.33,38.151L-21.33,25.281C-21.33,24.243 -20.488,23.401 -19.45,23.401L32.76,23.401C33.798,23.385 34.653,24.213 34.67,25.251L34.67,38.151ZM32.76,19.401L25.6,19.401L25.6,7.401C25.6,6.297 24.704,5.401 23.6,5.401C22.495,5.401 21.6,6.297 21.6,7.401L21.6,19.401L-19.45,19.401C-22.695,19.407 -25.325,22.036 -25.33,25.281L-25.33,38.151C-25.325,41.395 -22.694,44.021 -19.45,44.021L32.76,44.021C36.002,44.044 38.647,41.433 38.67,38.191L38.67,38.151L38.67,25.281C38.67,22.034 36.037,19.401 32.79,19.401L32.76,19.401Z" style="fill:rgb(28,154,214);fill-rule:nonzero;"/>
                    </g>
                </g>
            </g>
        </g>
    </g>
</svg>
