<?xml version="1.0" encoding="UTF-8" standalone="no"?>
<!DOCTYPE svg PUBLIC "-//W3C//DTD SVG 1.1//EN" "http://www.w3.org/Graphics/SVG/1.1/DTD/svg11.dtd">
<svg width="100%" height="100%" viewBox="0 0 23 23" version="1.1" xmlns="http://www.w3.org/2000/svg" xmlns:xlink="http://www.w3.org/1999/xlink" xml:space="preserve" xmlns:serif="http://www.serif.com/" style="fill-rule:evenodd;clip-rule:evenodd;stroke-linecap:round;stroke-linejoin:round;stroke-miterlimit:1.5;">
    <g transform="matrix(1,0,0,1,-3113.22,-196.083)">
        <g transform="matrix(0.890869,0,0,0.489413,1744.64,7.9885)">
            <g transform="matrix(1,0,0,1,76.7981,63.3412)">
                <g opacity="0.3">
                    <g transform="matrix(0.793727,1.44481,-0.793727,1.44481,-1093.32,-4837.19)">
                        <path d="M3394,177L3424,177" style="fill:none;stroke:rgb(53,62,73);stroke-width:1.2px;"/>
                    </g>
                    <g transform="matrix(0.793727,-1.44481,0.793727,1.44481,-1374.3,5013.5)">
                        <path d="M3394,177L3424,177" style="fill:none;stroke:rgb(53,62,73);stroke-width:1.2px;"/>
                    </g>
                </g>
            </g>
        </g>
    </g>
</svg>
